DA5020 - Project Sentimental Analysis on Amazon Reviews
…
worst_reviews <- slice(a, top_n(sent_agg, 10, -ave_sentiment)$element_id)
with(worst_reviews, sentiment_by(review)) %>% highlight()

Word count of all the reviews combined

b<-a$review
text_tb <- tibble(c = seq_along(b),
                  text = b)
x<-text_tb %>%
  unnest_tokens(word, text)
x%>%
  count(word,sort=T)

## # A tibble: 2,034 x 2
##          word     n
##         <chr> <int>
##  1        the   652
##  2         to   357
##  3          i   355
##  4        and   346
##  5          a   247
##  6         of   175
##  7         is   150
##  8        for   142
##  9       bose   137
## 10 headphones   137
## # ... with 2,024 more rows

Stopwords or words that do not make sense are removed

x %>%
  anti_join(stop_words) %>%
  count(word, sort = TRUE)

## # A tibble: 1,619 x 2
##          word     n
##         <chr> <int>
##  1       bose   137
##  2 headphones   137
##  3      noise    88
##  4       sony    71
##  5      sound    70
##  6      music    51
##  7    quality    33
##  8       pair    32
##  9 cancelling    31
## 10       hear    31
## # ... with 1,609 more rows
…
